^C:\USERS\MAGSHIMIM\DESKTOP\SCHOOL\MAGSHIMIM\C++\LESSON11\LESSON11\LESSON11\LESSON11\MAIN.CPP|C:\USERS\MAGSHIMIM\DESKTOP\SCHOOL\MAGSHIMIM\C++\LESSON11\LESSON11\LESSON11\LESSON11\THREADS.CPP
C:\USERS\MAGSHIMIM\DESKTOP\SCHOOL\MAGSHIMIM\C++\LESSON11\LESSON11\LESSON11\LESSON11\DEBUG\VC141.PDB
C:\USERS\MAGSHIMIM\DESKTOP\SCHOOL\MAGSHIMIM\C++\LESSON11\LESSON11\LESSON11\LESSON11\DEBUG\VC141.IDB
C:\USERS\MAGSHIMIM\DESKTOP\SCHOOL\MAGSHIMIM\C++\LESSON11\LESSON11\LESSON11\LESSON11\DEBUG\MAIN.OBJ
C:\USERS\MAGSHIMIM\DESKTOP\SCHOOL\MAGSHIMIM\C++\LESSON11\LESSON11\LESSON11\LESSON11\DEBUG\THREADS.OBJ
^C:\USERS\MAGSHIMIM\DESKTOP\SCHOOL\MAGSHIMIM\C++\LESSON11\LESSON11\LESSON11\LESSON11\MAIN.CPP
C:\USERS\MAGSHIMIM\DESKTOP\SCHOOL\MAGSHIMIM\C++\LESSON11\LESSON11\LESSON11\LESSON11\DEBUG\VC141.PDB
C:\USERS\MAGSHIMIM\DESKTOP\SCHOOL\MAGSHIMIM\C++\LESSON11\LESSON11\LESSON11\LESSON11\DEBUG\VC141.IDB
C:\USERS\MAGSHIMIM\DESKTOP\SCHOOL\MAGSHIMIM\C++\LESSON11\LESSON11\LESSON11\LESSON11\DEBUG\MAIN.OBJ
^C:\USERS\MAGSHIMIM\DESKTOP\SCHOOL\MAGSHIMIM\C++\LESSON11\LESSON11\LESSON11\LESSON11\THREADS.CPP
C:\USERS\MAGSHIMIM\DESKTOP\SCHOOL\MAGSHIMIM\C++\LESSON11\LESSON11\LESSON11\LESSON11\DEBUG\VC141.PDB
C:\USERS\MAGSHIMIM\DESKTOP\SCHOOL\MAGSHIMIM\C++\LESSON11\LESSON11\LESSON11\LESSON11\DEBUG\VC141.IDB
C:\USERS\MAGSHIMIM\DESKTOP\SCHOOL\MAGSHIMIM\C++\LESSON11\LESSON11\LESSON11\LESSON11\DEBUG\THREADS.OBJ
